{
    "results": [
        {
            "vote_count": 53,
            "id": 420818,
            "video": false,
            "vote_average": 6.3,
            "title": "The Lion King",
            "popularity": 194.999,
            "poster_path": "\/dzBtMocZuJbjLOXvrl4zGYigDzh.jpg",
            "original_language": "en",
            "original_title": "The Lion King",
            "genre_ids": [
                12,
                16,
                10751,
                18
            ],
            "backdrop_path": "\/1TUg5pO1VZ4B0Q1amk3OlXvlpXV.jpg",
            "adult": false,
            "overview": "Simba idolises his father, King Mufasa, and takes to heart his own royal destiny. But not everyone in the kingdom celebrates the new cub's arrival. Scar, Mufasa's brother—and former heir to the throne—has plans of his own. The battle for Pride Rock is ravaged with betrayal, tragedy and drama, ultimately resulting in Simba's exile. With help from a curious pair of newfound friends, Simba will have to figure out how to grow up and take back what is rightfully his.",
            "release_date": "2019-07-12"
        },
        {
            "vote_count": 1300,
            "id": 301528,
            "video": false,
            "vote_average": 7.8,
            "title": "Toy Story 4",
            "popularity": 188.558,
            "poster_path": "\/w9kR8qbmQ01HwnvK4alvnQ2ca0L.jpg",
            "original_language": "en",
            "original_title": "Toy Story 4",
            "genre_ids": [
                12,
                16,
                35,
                10751
            ],
            "backdrop_path": "\/m67smI1IIMmYzCl9axvKNULVKLr.jpg",
            "adult": false,
            "overview": "Woody has always been confident about his place in the world and that his priority is taking care of his kid, whether that's Andy or Bonnie. But when Bonnie adds a reluctant new toy called \"Forky\" to her room, a road trip adventure alongside old and new friends will show Woody how big the world can be for a toy.",
            "release_date": "2019-06-19"
        },
        {
            "vote_count": 29,
            "id": 511987,
            "video": false,
            "vote_average": 6.8,
            "title": "Crawl",
            "popularity": 149.076,
            "poster_path": "\/mKxpYRIrCZLxZjNqpocJ2RdQW8v.jpg",
            "original_language": "en",
            "original_title": "Crawl",
            "genre_ids": [
                53,
                28,
                27
            ],
            "backdrop_path": "\/2cAce3oD0Hh7f5XxuXmNXa1WiuZ.jpg",
            "adult": false,
            "overview": "While struggling to save her father during a Category 5 hurricane, a young woman finds herself trapped inside a flooding house and fighting for her life against Florida’s most savage and feared predators.",
            "release_date": "2019-07-11"
        },
        {
            "vote_count": 21,
            "id": 566555,
            "video": false,
            "vote_average": 5,
            "title": "Detective Conan: The Fist of Blue Sapphire",
            "popularity": 105.04,
            "poster_path": "\/86Y6qM8zTn3PFVfCm9J98Ph7JEB.jpg",
            "original_language": "ja",
            "original_title": "名探偵コナン 紺青の拳（フィスト）",
            "genre_ids": [
                16,
                28,
                18,
                9648,
                35
            ],
            "backdrop_path": "\/wf6VDSi4aFCZfuD8sX8JAKLfJ5m.jpg",
            "adult": false,
            "overview": "23rd movie in the \"Detective Conan\" franchise.",
            "release_date": "2019-04-12"
        },
        {
            "vote_count": 463,
            "id": 479455,
            "video": false,
            "vote_average": 6,
            "title": "Men in Black: International",
            "popularity": 60.597,
            "poster_path": "\/dPrUPFcgLfNbmDL8V69vcrTyEfb.jpg",
            "original_language": "en",
            "original_title": "Men in Black: International",
            "genre_ids": [
                28,
                35,
                878,
                12
            ],
            "backdrop_path": "\/2FYzxgLNuNVwncilzUeCGbOQzP7.jpg",
            "adult": false,
            "overview": "The Men in Black have always protected the Earth from the scum of the universe. In this new adventure, they tackle their biggest, most global threat to date: a mole in the Men in Black organization.",
            "release_date": "2019-06-12"
        },
        {
            "vote_count": 184,
            "id": 533642,
            "video": false,
            "vote_average": 5.8,
            "title": "Child's Play",
            "popularity": 56.128,
            "poster_path": "\/rpS7ROczWulqfaXG2klYapULXKm.jpg",
            "original_language": "en",
            "original_title": "Child's Play",
            "genre_ids": [
                27,
                878
            ],
            "backdrop_path": "\/vHse4QK31Vc3X7BKKU5GOQhYxv6.jpg",
            "adult": false,
            "overview": "Karen, a single mother, gifts her son Andy a Buddi doll for his birthday, unaware of its more sinister nature. A contemporary re-imagining of the 1988 horror classic.",
            "release_date": "2019-06-19"
        },
        {
            "vote_count": 1627,
            "id": 447404,
            "video": false,
            "vote_average": 7,
            "title": "Pokémon Detective Pikachu",
            "popularity": 50.159,
            "poster_path": "\/wgQ7APnFpf1TuviKHXeEe3KnsTV.jpg",
            "original_language": "en",
            "original_title": "Pokémon Detective Pikachu",
            "genre_ids": [
                9648,
                10751,
                35,
                878,
                28,
                12
            ],
            "backdrop_path": "\/nDP33LmQwNsnPv29GQazz59HjJI.jpg",
            "adult": false,
            "overview": "In a world where people collect pocket-size monsters (Pokémon) to do battle, a boy comes across an intelligent monster who seeks to be a detective.",
            "release_date": "2019-05-03"
        },
        {
            "vote_count": 3,
            "id": 509874,
            "video": false,
            "vote_average": 6.7,
            "title": "Lying and Stealing",
            "popularity": 45.608,
            "poster_path": "\/4YrVrPfMEqtFsLmN4HdzERjbveo.jpg",
            "original_language": "en",
            "original_title": "Lying and Stealing",
            "genre_ids": [
                18,
                80
            ],
            "backdrop_path": "\/1cCt2xJfrXh4xcUUPiVX3fIhO4R.jpg",
            "adult": false,
            "overview": "Hoping to leave his criminal lifestyle behind him, a successful art thief teams up with a sexy con woman to pull off the ultimate heist and set himself free.",
            "release_date": "2019-07-12"
        },
        {
            "vote_count": 230,
            "id": 412117,
            "video": false,
            "vote_average": 6.4,
            "title": "The Secret Life of Pets 2",
            "popularity": 45.051,
            "poster_path": "\/q3mKnSkzp1doIsCye6ap4KIUAbu.jpg",
            "original_language": "en",
            "original_title": "The Secret Life of Pets 2",
            "genre_ids": [
                12,
                16,
                35,
                10751
            ],
            "backdrop_path": "\/kTQQjh53k2twvLDwLH8c0m4w6HR.jpg",
            "adult": false,
            "overview": "Max the terrier must cope with some major life changes when his owner gets married and has a baby. When the family takes a trip to the countryside, nervous Max has numerous run-ins with canine-intolerant cows, hostile foxes and a scary turkey. Luckily for Max, he soon catches a break when he meets Rooster, a gruff farm dog who tries to cure the lovable pooch of his neuroses.",
            "release_date": "2019-05-24"
        },
        {
            "vote_count": 797,
            "id": 438650,
            "video": false,
            "vote_average": 5.4,
            "title": "Cold Pursuit",
            "popularity": 44.203,
            "poster_path": "\/hXgmWPd1SuujRZ4QnKLzrj79PAw.jpg",
            "original_language": "en",
            "original_title": "Cold Pursuit",
            "genre_ids": [
                28,
                18,
                80,
                53
            ],
            "backdrop_path": "\/vEf5TcMW0ZwzGz24ZJSRWYXYlpX.jpg",
            "adult": false,
            "overview": "The quiet family life of Nels Coxman, a snowplow driver, is upended after his son's murder. Nels begins a vengeful hunt for Viking, the drug lord he holds responsible for the killing, eliminating Viking's associates one by one. As Nels draws closer to Viking, his actions bring even more unexpected and violent consequences, as he proves that revenge is all in the execution.",
            "release_date": "2019-02-07"
        },
        {
            "vote_count": 98,
            "id": 530385,
            "video": false,
            "vote_average": 7.3,
            "title": "Midsommar",
            "popularity": 43.162,
            "poster_path": "\/eycO6M2s38xO1888Gq2gSrXf0A6.jpg",
            "original_language": "en",
            "original_title": "Midsommar",
            "genre_ids": [
                27,
                18
            ],
            "backdrop_path": "\/reU8qaO848nkCay7WPtJcdi61p5.jpg",
            "adult": false,
            "overview": "A young couple travels to Sweden to visit their friend’s rural hometown and attend its mid-summer festival. What begins as an idyllic retreat quickly descends into an increasingly violent and bizarre competition at the hands of a pagan cult.",
            "release_date": "2019-07-03"
        },
        {
            "vote_count": 173,
            "id": 515195,
            "video": false,
            "vote_average": 6.6,
            "title": "Yesterday",
            "popularity": 40.759,
            "poster_path": "\/1rjaRIAqFPQNnMtqSMLtg0VEABi.jpg",
            "original_language": "en",
            "original_title": "Yesterday",
            "genre_ids": [
                35,
                10402,
                10749
            ],
            "backdrop_path": "\/t9xAqZc37OgVkojyQwT3UCanZJk.jpg",
            "adult": false,
            "overview": "Jack Malik is a struggling singer-songwriter in an English seaside town whose dreams of fame are rapidly fading, despite the fierce devotion and support of his childhood best friend, Ellie. After a freak bus accident during a mysterious global blackout, Jack wakes up to discover that he's the only person on Earth who can remember The Beatles.",
            "release_date": "2019-06-27"
        },
        {
            "vote_count": 959,
            "id": 457799,
            "video": false,
            "vote_average": 7,
            "title": "Extremely Wicked, Shockingly Evil and Vile",
            "popularity": 40.222,
            "poster_path": "\/bP8T3WWpFTvyITSzetR3UCnG45M.jpg",
            "original_language": "en",
            "original_title": "Extremely Wicked, Shockingly Evil and Vile",
            "genre_ids": [
                53,
                80,
                18,
                36
            ],
            "backdrop_path": "\/2l1QJBrT5nf0O6199piSGBptfZ9.jpg",
            "adult": false,
            "overview": "A chronicle of the crimes of Ted Bundy, from the perspective of his longtime girlfriend, Elizabeth Kloepfer, who refused to believe the truth about him for years.",
            "release_date": "2019-05-02"
        },
        {
            "vote_count": 14630,
            "id": 603,
            "video": false,
            "vote_average": 8.1,
            "title": "The Matrix",
            "popularity": 37.297,
            "poster_path": "\/hEpWvX6Bp79eLxY1kX5ZZJcme5U.jpg",
            "original_language": "en",
            "original_title": "The Matrix",
            "genre_ids": [
                28,
                878
            ],
            "backdrop_path": "\/icmmSD4vTTDKOq2vvdulafOGw93.jpg",
            "adult": false,
            "overview": "Set in the 22nd century, The Matrix tells the story of a computer hacker who joins a group of underground insurgents fighting the vast and powerful computers who now rule the earth.",
            "release_date": "1999-03-30"
        },
        {
            "vote_count": 235,
            "id": 502416,
            "video": false,
            "vote_average": 5.6,
            "title": "Ma",
            "popularity": 35.699,
            "poster_path": "\/6n7ASmQ1wY2cxTubFFGlcvPpyk7.jpg",
            "original_language": "en",
            "original_title": "Ma",
            "genre_ids": [
                53,
                27
            ],
            "backdrop_path": "\/mBOv5YrX5QGr5CusK0PKSHuxOt9.jpg",
            "adult": false,
            "overview": "Sue Ann is a loner who keeps to herself in her quiet Ohio town. One day, she is asked by Maggie, a new teenager in town, to buy some booze for her and her friends, and Sue Ann sees the chance to make some unsuspecting, if younger, friends of her own.",
            "release_date": "2019-05-29"
        },
        {
            "vote_count": 955,
            "id": 527641,
            "video": false,
            "vote_average": 8.2,
            "title": "Five Feet Apart",
            "popularity": 35.269,
            "poster_path": "\/kreTuJBkUjVWePRfhHZuYfhNE1T.jpg",
            "original_language": "en",
            "original_title": "Five Feet Apart",
            "genre_ids": [
                10749,
                18
            ],
            "backdrop_path": "\/d7wa3VpUpKDQ7GG9EMw8zSJCFoI.jpg",
            "adult": false,
            "overview": "Seventeen-year-old Stella spends most of her time in the hospital as a cystic fibrosis patient. Her life is full of routines, boundaries and self-control -- all of which get put to the test when she meets Will, an impossibly charming teen who has the same illness. There's an instant flirtation, though restrictions dictate that they must maintain a safe distance between them. As their connection intensifies, so does the temptation to throw the rules out the window and embrace that attraction.",
            "release_date": "2019-03-15"
        },
        {
            "vote_count": 286,
            "id": 535581,
            "video": false,
            "vote_average": 5.7,
            "title": "The Dead Don't Die",
            "popularity": 31.901,
            "poster_path": "\/fgGzTEoNxptCRtEOpOPvIEdlxAq.jpg",
            "original_language": "en",
            "original_title": "The Dead Don't Die",
            "genre_ids": [
                35,
                27
            ],
            "backdrop_path": "\/sLmVJIvwlGioO8C0wAOdzJWGUHP.jpg",
            "adult": false,
            "overview": "In a small peaceful town, zombies suddenly rise to terrorize the town. Now three bespectacled police officers and a strange Scottish morgue expert must band together to defeat the undead.",
            "release_date": "2019-05-15"
        },
        {
            "vote_count": 0,
            "id": 384018,
            "video": false,
            "vote_average": 0,
            "title": "Fast & Furious Presents: Hobbs & Shaw",
            "popularity": 31.658,
            "poster_path": "\/keym7MPn1icW1wWfzMnW3HeuzWU.jpg",
            "original_language": "en",
            "original_title": "Fast & Furious Presents: Hobbs & Shaw",
            "genre_ids": [
                28
            ],
            "backdrop_path": "\/8Xv0sKuuRkIcLBqJ2mauU7GPEzV.jpg",
            "adult": false,
            "overview": "A spinoff of The Fate of the Furious, focusing on Johnson's US Diplomatic Security Agent Luke Hobbs forming an unlikely alliance with Statham's Deckard Shaw.",
            "release_date": "2019-08-01"
        },
        {
            "vote_count": 80,
            "id": 484641,
            "video": false,
            "vote_average": 5.8,
            "title": "Anna",
            "popularity": 31.352,
            "poster_path": "\/exTOQMsl6sMntASQZWLhjghzVGx.jpg",
            "original_language": "en",
            "original_title": "Anna",
            "genre_ids": [
                53,
                28
            ],
            "backdrop_path": "\/jbMfZtei6aQABPSmQra7tU5ZScD.jpg",
            "adult": false,
            "overview": "Beneath Anna Poliatova's striking beauty lies a secret that will unleash her indelible strength and skill to become one of the world's most feared government assassins.",
            "release_date": "2019-06-20"
        },
        {
            "vote_count": 315,
            "id": 496243,
            "video": false,
            "vote_average": 8.8,
            "title": "Parasite",
            "popularity": 27.91,
            "poster_path": "\/7IiTTgloJzvGI1TAYymCfbfl3vT.jpg",
            "original_language": "ko",
            "original_title": "기생충",
            "genre_ids": [
                18,
                53
            ],
            "backdrop_path": "\/ny5aCtglk2kceGAuAdiyqbhBBAf.jpg",
            "adult": false,
            "overview": "All unemployed, Ki-taek's family takes peculiar interest in the wealthy and glamorous Parks for their livelihood until they get entangled in an unexpected incident.",
            "release_date": "2019-05-30"
        }
    ],
    "page": 1,
    "total_results": 364,
    "dates": {
        "maximum": "2019-08-10",
        "minimum": "2019-07-14"
    },
    "total_pages": 19
}